// Material5 genrated by blender2ogre 0.6.0

material Material5 
{
    receive_shadows on 

    technique
    {
        pass Material5
        {
            ambient 0.8000000715255737 0.001864246092736721 0.0027574580162763596 1.0
            diffuse 0.640000066757203 0.001491396896412922 0.0022059664458925488 1.0
            specular 0.5 0.0 0.0018408624455332756 1.0 12.5
            emissive 0.0 0.0 0.0 1.0

            alpha_to_coverage off
            colour_write on
            cull_hardware clockwise
            depth_check on
            depth_func less_equal
            depth_write on
            illumination_stage 
            light_clip_planes off
            light_scissor off
            lighting on
            normalise_normals off
            polygon_mode solid
            scene_blend one zero
            scene_blend_op add
            shading gouraud
            transparent_sorting on

            texture_unit 
            {
                texture Texture5.jpg
                tex_address_mode wrap
                scale 1.0 1.0
                colour_op modulate
            }
        }
    }
}
